…
In Congruence with the in-depth look at the weather, we decided to take
a look at the street indicators as variables. By doing this we were able
to provide a graph that jumped out to us. Traffic signals, Junctions and
Crossings have a significant amount of crashes compared to other traffic
indicators. This is helpful to keep in mind during our work.

    ## # A tibble: 48 x 14
    ## # Groups:   Amenity, Bump, Crossing, Give_Way, Junction, No_Exit, Railway,
    ## #   Roundabout, Station, Stop, Traffic_Calming, Traffic_Signal, Turning_Loop
    ## #   [48]
    ##    Amenity Bump  Crossing Give_Way Junction No_Exit Railway Roundabout Station
    ##    <fct>   <fct> <fct>    <fct>    <fct>    <fct>   <fct>   <fct>      <fct>  
    ##  1 False   False False    False    False    False   False   False      False  
    ##  2 False   False False    False    False    False   False   False      False  
    ##  3 False   False False    False    False    False   False   False      False  
    ##  4 False   False False    False    False    False   False   False      False  
    ##  5 False   False False    False    False    False   False   False      False  
    ##  6 False   False False    False    False    False   False   False      True   
    ##  7 False   False False    False    False    False   False   False      True   
    ##  8 False   False False    False    False    False   True    False      False  
    ##  9 False   False False    False    False    False   True    False      True   
    ## 10 False   False False    False    False    True    False   False      False  
    ## # … with 38 more rows, and 5 more variables: Stop <fct>, Traffic_Calming <fct>,
    ## #   Traffic_Signal <fct>, Turning_Loop <fct>, n <int>
…
    ##   Amenity        Bump       Crossing     Give_Way     Junction    No_Exit    
    ##  False:1009   False:1009   False:1009   False:1009   False:965   False:1009  
    ##  True :   0   True :   0   True :   0   True :   0   True : 44   True :   0  
    ##   Railway     Roundabout    Station        Stop      Traffic_Calming
    ##  False:1009   False:1009   False:1009   False:1009   False:1009     
    ##  True :   0   True :   0   True :   0   True :   0   True :   0     
    ##  Traffic_Signal Turning_Loop
    ##  False:1009     False:1009  
    ##  True :   0

    ## # A tibble: 46,338 x 2
    ##    Description                                                  n
    ##    <fct>                                                    <int>
    ##  1 Accident on I-75 Northbound at Exit 118 M-21 Corunna Rd.   112
    ##  2 Accident on Hill Rd at Fenton Rd.                          106
    ##  3 At I-75/Exit 18 - Accident.                                 96
    ##  4 At 12 Mile Rd/Exit 63 - Accident.                           84
    ##  5 Accident on I-75 Southbound at Exit 118 M-21 Corunna Rd.    79
    ##  6 At Davison/I-96 Local/Exit 186 - Accident.                  77
    ##  7 Accident on I-75 Northbound at Exit 131 M-57 Vienna Rd.     76
    ##  8 Accident on Court St at Center Rd.                          75
    ##  9 Accident on US-23 Northbound at Exit 88 Grand Blanc Rd.     75
    ## 10 Accident on M-11 28th St at Eastern Ave.                    74
    ## # … with 46,328 more rows
…
