…
***Figure*** More accidents occur during the day.

    ## # A tibble: 80 x 2
    ##    County  Accidents
    ##    <fct>       <int>
    ##  1 Alcona          5
    ##  2 Alger           1
    ##  3 Allegan       406
    ##  4 Alpena         20
    ##  5 Antrim         17
    ##  6 Arenac         35
    ##  7 Baraga          2
    ##  8 Barry          70
    ##  9 Bay           341
    ## 10 Benzie         28
    ## # … with 70 more rows

    ## # A tibble: 80 x 2
    ##    County     Accidents
    ##    <fct>          <int>
    ##  1 Genesee        27072
    ##  2 Wayne          22214
    ##  3 Kent           12989
    ##  4 Oakland        10115
    ##  5 Macomb          4361
    ##  6 Washtenaw       1689
    ##  7 Ingham          1126
    ##  8 Ottawa           941
    ##  9 Livingston       723
    ## 10 Jackson          709
    ## # … with 70 more rows
…
